Added Member To Class: ClassName=Hv_Indication_2023 Member=Component D2 1.25V
Added Member To Class: ClassName=Hv_Indication_2023 Member=Component D3 1.25V
Added Member To Class: ClassName=Hv_Indication_2023 Member=Component D4 1.25V
Added Member To Class: ClassName=Hv_Indication_2023 Member=Component R5 200
Added Member To Class: ClassName=Hv_Indication_2023 Member=Component R6 200
Added Member To Class: ClassName=Hv_Indication_2023 Member=Component R7 820
