Change Physical Footprint: Designator=C1 Old Footprint=CAP_1210 New Footprint=CAP_1210
Change Physical Footprint: Designator=C2 Old Footprint=CAP_0603 New Footprint=CAP_0603
Change Physical Footprint: Designator=C3 Old Footprint=CAP_0805 New Footprint=CAP_0805
Change Physical Footprint: Designator=C4 Old Footprint=CAP_EEEFP1E221AP New Footprint=CAP_EEEFP1E221AP
Change Physical Footprint: Designator=D1 Old Footprint=DO-219AB2 New Footprint=DO-219AB2
Change Physical Footprint: Designator=D2 Old Footprint=SOD-123W New Footprint=SOD-123W
Change Physical Footprint: Designator=D3 Old Footprint=SOD-123W New Footprint=SOD-123W
Change Physical Footprint: Designator=D4 Old Footprint=SOD-123W New Footprint=SOD-123W
Change Physical Footprint: Designator=DH2 Old Footprint=M4_Distancer_Hole New Footprint=M4_Distancer_Hole
Change Physical Footprint: Designator=DH3 Old Footprint=M4_Distancer_Hole New Footprint=M4_Distancer_Hole
Change Physical Footprint: Designator=HV+ Old Footprint=CONN_MATE-N-LOCK_R/A_1x2M New Footprint=CONN_MATE-N-LOCK_R/A_1x2M
Change Physical Footprint: Designator=HV- Old Footprint=CONN_MATE-N-LOCK_R/A_1x2M New Footprint=CONN_MATE-N-LOCK_R/A_1x2M
Change Physical Footprint: Designator=L1 Old Footprint=IND_SRF1260-102M New Footprint=IND_SRF1260-102M
Change Physical Footprint: Designator=LED_OUTPUT Old Footprint=CONN_MATE-N-LOCK_R/A_1x2M New Footprint=CONN_MATE-N-LOCK_R/A_1x2M
Change Physical Footprint: Designator=R1 Old Footprint=RES_0603 New Footprint=RES_0603
Change Physical Footprint: Designator=R2 Old Footprint=RES_0603 New Footprint=RES_0603
Change Physical Footprint: Designator=R3 Old Footprint=RES_0805 New Footprint=RES_0805
Change Physical Footprint: Designator=R4 Old Footprint=RES_0805 New Footprint=RES_0805
Change Physical Footprint: Designator=R5 Old Footprint=FMP200 New Footprint=FMP200
Change Physical Footprint: Designator=R6 Old Footprint=FMP200 New Footprint=FMP200
Change Physical Footprint: Designator=R7 Old Footprint=FMP200 New Footprint=FMP200
Change Physical Footprint: Designator=SW1 Old Footprint=SMD-8C_PWI-M New Footprint=SMD-8C_PWI-M
