Removed Pin From Net: NetName=NetC4_1 Pin=C4-1
Removed Pin From Net: NetName=NetC1_2 Pin=C4-2
Added Component: Designator=C4(CAP_ELEC_RADIAL_5.5)
Add component (AddParameter): Name = "Capacitance"; Value = "220uF"; VariantName = "[No Variations]"
Add component (AddParameter): Name = "Dielectric(Temperature range)"; Value = "/"; VariantName = "[No Variations]"
Add component (AddParameter): Name = "ESR"; Value = "/"; VariantName = "[No Variations]"
Add component (AddParameter): Name = "Manufacturer"; Value = "Panasonic Electronic Components"; VariantName = "[No Variations]"
Add component (AddParameter): Name = "Manufacturer part number"; Value = "EEE-FP1E221AP"; VariantName = "[No Variations]"
Add component (AddParameter): Name = "Package"; Value = "Radial,Can - SMD"; VariantName = "[No Variations]"
Add component (AddParameter): Name = "Supplier"; Value = "DigiKey"; VariantName = "[No Variations]"
Add component (AddParameter): Name = "Supplier part number"; Value = "PCE4548CT-ND"; VariantName = "[No Variations]"
Add component (AddParameter): Name = "Temperature range"; Value = "/"; VariantName = "[No Variations]"
Add component (AddParameter): Name = "Tolerance"; Value = "20%"; VariantName = "[No Variations]"
Add component (AddParameter): Name = "Voltage"; Value = "25V"; VariantName = "[No Variations]"
Added Pin To Net: NetName=NetC4_1 Pin=C4-1
Added Pin To Net: NetName=NetC1_2 Pin=C4-2
