Removed Pin From Net: NetName=HV_GND Pin=PS1-1
Removed Pin From Net: NetName=NetPS1_2 Pin=PS1-2
Removed Pin From Net: NetName=NetPS1_6 Pin=PS1-6
Removed Pin From Net: NetName=NetLED_OUTPUT_2 Pin=PS1-7
Change Component Footprint: Designator=R8 Old Footprint=RES_0805 New Footprint=RES_0603
Change Component Comment : Designator=R8 Old Comment=680R New Comment=470R
Change component parameters: Designator = "R8" ("R8"); Footprint = "RES_0805"; UniqueID = "\BPHJIZBQ" ("\BPHJIZBQ")
Change component parameters (AddParameter): Name = "Manfacturer"; Value = "Kelco"; VariantName = "[No Variations]"
Change component parameters (AddParameter): Name = "Manufacturer Part Number"; Value = "8983"; VariantName = "[No Variations]"
Change component parameters (AddParameter): Name = "Power"; Value = "0.1W"; VariantName = "[No Variations]"
Change component parameters (AddParameter): Name = "Power Derange"; Value = "/"; VariantName = "[No Variations]"
Change component parameters (AddParameter): Name = "Resistance"; Value = "470R"; VariantName = "[No Variations]"
Change component parameters (AddParameter): Name = "Suplier"; Value = "Kelco"; VariantName = "[No Variations]"
Change component parameters (AddParameter): Name = "Suplier Part Number"; Value = "8983"; VariantName = "[No Variations]"
Change component parameters (AddParameter): Name = "Temperature Range"; Value = "/"; VariantName = "[No Variations]"
Change component parameters (AddParameter): Name = "Tolerance"; Value = "1%"; VariantName = "[No Variations]"
Added Component: Designator=PS?(SPBW06F-15_MWU)
Add component (AddParameter): Name = "Class"; Value = "/"; VariantName = "[No Variations]"
Add component (AddParameter): Name = "Function"; Value = "Isolatin"; VariantName = "[No Variations]"
Add component (AddParameter): Name = "Input voltage max"; Value = "36V"; VariantName = "[No Variations]"
Add component (AddParameter): Name = "Input voltage min"; Value = "9V"; VariantName = "[No Variations]"
Add component (AddParameter): Name = "Manufacturer"; Value = "MEAN WELL USA Inc."; VariantName = "[No Variations]"
Add component (AddParameter): Name = "Manufacturer part number"; Value = "SPBW06F-15"; VariantName = "[No Variations]"
Add component (AddParameter): Name = "Output type"; Value = "Fixed"; VariantName = "[No Variations]"
Add component (AddParameter): Name = "Output voltage max"; Value = "15v"; VariantName = "[No Variations]"
Add component (AddParameter): Name = "Output voltage min"; Value = "15V"; VariantName = "[No Variations]"
Add component (AddParameter): Name = "Subtype"; Value = "DC-DC"; VariantName = "[No Variations]"
Add component (AddParameter): Name = "Supplier"; Value = "DigiKey"; VariantName = "[No Variations]"
Add component (AddParameter): Name = "Supplier device package"; Value = "Tube"; VariantName = "[No Variations]"
Add component (AddParameter): Name = "Supplier part number"; Value = "1866-4812-ND"; VariantName = "[No Variations]"
Add component (AddParameter): Name = "Value"; Value = "9-36V/15V"; VariantName = "[No Variations]"
Added Component: Designator=(TEL 6-1212)
Add component (AddParameter): Name = "Class"; Value = "DC-DC"; VariantName = "[No Variations]"
Add component (AddParameter): Name = "ComponentLink1Description"; Value = "Datasheet"; VariantName = "[No Variations]"
Add component (AddParameter): Name = "ComponentLink1URL"; Value = "https://eu.mouser.com/datasheet/2/687/tel6_datasheet-3244305.pdf"; VariantName = "[No Variations]"
Add component (AddParameter): Name = "Input Voltage Max"; Value = "18V"; VariantName = "[No Variations]"
Add component (AddParameter): Name = "Input Voltage Min"; Value = "9V"; VariantName = "[No Variations]"
Add component (AddParameter): Name = "Isolation Voltage"; Value = "1.5kVDC"; VariantName = "[No Variations]"
Add component (AddParameter): Name = "Manufacturer"; Value = "TRACO Power"; VariantName = "[No Variations]"
Add component (AddParameter): Name = "Manufacturer Part Number"; Value = "TEL 6-1212"; VariantName = "[No Variations]"
Add component (AddParameter): Name = "Output Configuration"; Value = "1"; VariantName = "[No Variations]"
Add component (AddParameter): Name = "Output Voltage"; Value = "12V"; VariantName = "[No Variations]"
Add component (AddParameter): Name = "Package"; Value = "Custom"; VariantName = "[No Variations]"
Add component (AddParameter): Name = "Supplier"; Value = "Mouser"; VariantName = "[No Variations]"
Add component (AddParameter): Name = "Supplier Device Package"; Value = "x"; VariantName = "[No Variations]"
Add component (AddParameter): Name = "Supplier Part Nuber"; Value = "495-TEL6-1212"; VariantName = "[No Variations]"
Added Pin To Net: NetName=HV_GND Pin=-1
Added Pin To Net: NetName=NetPS1_6 Pin=-9
Added Pin To Net: NetName=NetLED_OUTPUT_2 Pin=-10
Added Pin To Net: NetName=NetPS1_2 Pin=-16
Change Net Name : Old Net Name=NetLED_OUTPUT_2 New Net Name=Net_10
Change Net Name : Old Net Name=NetPS1_2 New Net Name=Net_16
Change Net Name : Old Net Name=NetPS1_6 New Net Name=Net_9
Added Member To Class: ClassName=Hv_Indication_2023 Member=Component  DC-DC
